(export (version D)
  (design
    (source "C:\\Users\\jkant\\Google Drive\\KiCad\\MIDI Controller\\MIDI Controller.sch")
    (date "4/27/2020 6:51:35 PM")
    (tool "Eeschema (5.1.5)-3")
    (sheet (number 1) (name /) (tstamps /)
      (title_block
        (title)
        (company)
        (rev)
        (date)
        (source "MIDI Controller.sch")
        (comment (number 1) (value ""))
        (comment (number 2) (value ""))
        (comment (number 3) (value ""))
        (comment (number 4) (value "")))))
  (components
    (comp (ref U1)
      (value Teensy-LC)
      (footprint teensy:Teensy30_31_32_LC)
      (libsource (lib teensy) (part Teensy-LC) (description ""))
      (sheetpath (names /) (tstamps /))
      (tstamp 5EA746B0))
    (comp (ref RV5)
      (value R_POT)
      (footprint Potentiometer_THT:Potentiometer_Alps_RK09K_Single_Vertical)
      (datasheet ~)
      (libsource (lib Device) (part R_POT) (description Potentiometer))
      (sheetpath (names /) (tstamps /))
      (tstamp 5EA75E62))
    (comp (ref RV6)
      (value R_POT)
      (footprint Potentiometer_THT:Potentiometer_Alps_RK09K_Single_Vertical)
      (datasheet ~)
      (libsource (lib Device) (part R_POT) (description Potentiometer))
      (sheetpath (names /) (tstamps /))
      (tstamp 5EA77562))
    (comp (ref RV7)
      (value R_POT)
      (footprint Potentiometer_THT:Potentiometer_Alps_RK09K_Single_Vertical)
      (datasheet ~)
      (libsource (lib Device) (part R_POT) (description Potentiometer))
      (sheetpath (names /) (tstamps /))
      (tstamp 5EA77814))
    (comp (ref RV8)
      (value R_POT)
      (footprint Potentiometer_THT:Potentiometer_Alps_RK09K_Single_Vertical)
      (datasheet ~)
      (libsource (lib Device) (part R_POT) (description Potentiometer))
      (sheetpath (names /) (tstamps /))
      (tstamp 5EA77AD6))
    (comp (ref RV1)
      (value R_POT)
      (footprint Potentiometer_THT:Potentiometer_Alps_RK09K_Single_Vertical)
      (datasheet ~)
      (libsource (lib Device) (part R_POT) (description Potentiometer))
      (sheetpath (names /) (tstamps /))
      (tstamp 5EA7D29A))
    (comp (ref RV2)
      (value R_POT)
      (footprint Potentiometer_THT:Potentiometer_Alps_RK09K_Single_Vertical)
      (datasheet ~)
      (libsource (lib Device) (part R_POT) (description Potentiometer))
      (sheetpath (names /) (tstamps /))
      (tstamp 5EA7D2A0))
    (comp (ref RV3)
      (value R_POT)
      (footprint Potentiometer_THT:Potentiometer_Alps_RK09K_Single_Vertical)
      (datasheet ~)
      (libsource (lib Device) (part R_POT) (description Potentiometer))
      (sheetpath (names /) (tstamps /))
      (tstamp 5EA7D2A6))
    (comp (ref RV4)
      (value R_POT)
      (footprint Potentiometer_THT:Potentiometer_Alps_RK09K_Single_Vertical)
      (datasheet ~)
      (libsource (lib Device) (part R_POT) (description Potentiometer))
      (sheetpath (names /) (tstamps /))
      (tstamp 5EA7D2AC)))
  (libparts
    (libpart (lib Device) (part R_POT)
      (description Potentiometer)
      (docs ~)
      (footprints
        (fp Potentiometer*))
      (fields
        (field (name Reference) RV)
        (field (name Value) R_POT))
      (pins
        (pin (num 1) (name 1) (type passive))
        (pin (num 2) (name 2) (type passive))
        (pin (num 3) (name 3) (type passive))))
    (libpart (lib teensy) (part Teensy-LC)
      (fields
        (field (name Reference) U)
        (field (name Value) Teensy-LC))
      (pins
        (pin (num 1) (name GND) (type power_in))
        (pin (num 2) (name 0_RX1_MOSI1_Touch) (type BiDi))
        (pin (num 3) (name 1_TX1_MISO1_Touch) (type BiDi))
        (pin (num 4) (name 2) (type BiDi))
        (pin (num 5) (name 3_RX1_PWM_Touch) (type BiDi))
        (pin (num 6) (name 4_TX1_PWM_Touch) (type BiDi))
        (pin (num 7) (name 5_TX1_MISO1) (type BiDi))
        (pin (num 8) (name 6_RX3_CS1_PWM) (type BiDi))
        (pin (num 9) (name 7_RX3_MOSI0) (type BiDi))
        (pin (num 10) (name 8_TX3_MISO0) (type BiDi))
        (pin (num 11) (name 9_RX2_PWM) (type BiDi))
        (pin (num 12) (name 10_TX2_CS0_PWM) (type BiDi))
        (pin (num 13) (name 11_MOSI0) (type BiDi))
        (pin (num 14) (name 12_MISO0) (type BiDi))
        (pin (num 15) (name 17_Vin) (type output))
        (pin (num 16) (name 3.3V) (type power_in))
        (pin (num 17) (name GND) (type power_in))
        (pin (num 18) (name Program) (type input))
        (pin (num 19) (name 26_A12/DAC) (type BiDi))
        (pin (num 20) (name 13_LED_SCK0) (type BiDi))
        (pin (num 21) (name 14_A0_SCK0) (type BiDi))
        (pin (num 22) (name 15_A1_Touch) (type BiDi))
        (pin (num 23) (name 16_A2_SCL0_PWM_Touch) (type BiDi))
        (pin (num 24) (name 17_A3_SDA0_PWM_Touch) (type BiDi))
        (pin (num 25) (name 18_A4_SDA0_Touch) (type BiDi))
        (pin (num 26) (name 19_A5_SCL0_Touch) (type BiDi))
        (pin (num 27) (name 20_A6_SCK1_PWM_TX3) (type BiDi))
        (pin (num 28) (name 21_A7_MOSI1_RX1) (type BiDi))
        (pin (num 29) (name 22_A8_SCL1_PWM_Touch) (type BiDi))
        (pin (num 30) (name 23_A9_SDA1_PWM_Touch) (type BiDi))
        (pin (num 31) (name 3.3V) (type power_out))
        (pin (num 32) (name GND) (type power_in))
        (pin (num 33) (name Vin) (type power_in))
        (pin (num 34) (name VUSB) (type power_in))
        (pin (num 35) (name AREF) (type input))
        (pin (num 36) (name 24_A10) (type BiDi))
        (pin (num 37) (name 25_A11) (type BiDi))
        (pin (num ~) (name D+) (type BiDi)))))
  (libraries
    (library (logical Device)
      (uri "C:\\Program Files\\KiCad\\share\\kicad\\library/Device.lib"))
    (library (logical teensy)
      (uri "C:\\Users\\jkant\\KiCad Libraries\\teensy_library-master\\teensy.lib")))
  (nets
    (net (code 1) (name "Net-(RV4-Pad2)")
      (node (ref RV4) (pin 2))
      (node (ref U1) (pin 25)))
    (net (code 2) (name "Net-(RV1-Pad2)")
      (node (ref U1) (pin 28))
      (node (ref RV1) (pin 2)))
    (net (code 3) (name "Net-(RV6-Pad2)")
      (node (ref U1) (pin 23))
      (node (ref RV6) (pin 2)))
    (net (code 4) (name "Net-(RV5-Pad2)")
      (node (ref U1) (pin 24))
      (node (ref RV5) (pin 2)))
    (net (code 5) (name "Net-(RV8-Pad2)")
      (node (ref RV8) (pin 2))
      (node (ref U1) (pin 21)))
    (net (code 6) (name "Net-(RV2-Pad2)")
      (node (ref U1) (pin 27))
      (node (ref RV2) (pin 2)))
    (net (code 7) (name "Net-(RV3-Pad2)")
      (node (ref RV3) (pin 2))
      (node (ref U1) (pin 26)))
    (net (code 8) (name "Net-(RV1-Pad1)")
      (node (ref RV1) (pin 1))
      (node (ref U1) (pin 17))
      (node (ref RV4) (pin 1))
      (node (ref RV3) (pin 1))
      (node (ref RV2) (pin 1))
      (node (ref RV7) (pin 1))
      (node (ref RV6) (pin 1))
      (node (ref RV5) (pin 1))
      (node (ref RV8) (pin 1)))
    (net (code 9) (name "Net-(RV1-Pad3)")
      (node (ref RV1) (pin 3))
      (node (ref RV4) (pin 3))
      (node (ref RV8) (pin 3))
      (node (ref RV3) (pin 3))
      (node (ref RV5) (pin 3))
      (node (ref RV6) (pin 3))
      (node (ref RV7) (pin 3))
      (node (ref U1) (pin 16))
      (node (ref RV2) (pin 3)))
    (net (code 10) (name "Net-(U1-Pad8)")
      (node (ref U1) (pin 8)))
    (net (code 11) (name "Net-(U1-Pad31)")
      (node (ref U1) (pin 31)))
    (net (code 12) (name "Net-(U1-Pad32)")
      (node (ref U1) (pin 32)))
    (net (code 13) (name "Net-(U1-Pad33)")
      (node (ref U1) (pin 33)))
    (net (code 14) (name "Net-(U1-Pad34)")
      (node (ref U1) (pin 34)))
    (net (code 15) (name "Net-(U1-Pad35)")
      (node (ref U1) (pin 35)))
    (net (code 16) (name "Net-(U1-Pad36)")
      (node (ref U1) (pin 36)))
    (net (code 17) (name "Net-(U1-Pad37)")
      (node (ref U1) (pin 37)))
    (net (code 18) (name "Net-(U1-Pad4)")
      (node (ref U1) (pin 4)))
    (net (code 19) (name "Net-(U1-Pad5)")
      (node (ref U1) (pin 5)))
    (net (code 20) (name "Net-(U1-Pad6)")
      (node (ref U1) (pin 6)))
    (net (code 21) (name "Net-(U1-Pad7)")
      (node (ref U1) (pin 7)))
    (net (code 22) (name "Net-(U1-Pad30)")
      (node (ref U1) (pin 30)))
    (net (code 23) (name "Net-(U1-Pad9)")
      (node (ref U1) (pin 9)))
    (net (code 24) (name "Net-(U1-Pad~)")
      (node (ref U1) (pin ~)))
    (net (code 25) (name "Net-(U1-Pad~)")
      (node (ref U1) (pin ~)))
    (net (code 26) (name "Net-(RV7-Pad2)")
      (node (ref U1) (pin 22))
      (node (ref RV7) (pin 2)))
    (net (code 27) (name "Net-(U1-Pad20)")
      (node (ref U1) (pin 20)))
    (net (code 28) (name "Net-(U1-Pad10)")
      (node (ref U1) (pin 10)))
    (net (code 29) (name "Net-(U1-Pad11)")
      (node (ref U1) (pin 11)))
    (net (code 30) (name "Net-(U1-Pad12)")
      (node (ref U1) (pin 12)))
    (net (code 31) (name "Net-(U1-Pad13)")
      (node (ref U1) (pin 13)))
    (net (code 32) (name "Net-(U1-Pad14)")
      (node (ref U1) (pin 14)))
    (net (code 33) (name "Net-(U1-Pad15)")
      (node (ref U1) (pin 15)))
    (net (code 34) (name "Net-(U1-Pad18)")
      (node (ref U1) (pin 18)))
    (net (code 35) (name "Net-(U1-Pad19)")
      (node (ref U1) (pin 19)))
    (net (code 36) (name "Net-(U1-Pad2)")
      (node (ref U1) (pin 2)))
    (net (code 37) (name "Net-(U1-Pad29)")
      (node (ref U1) (pin 29)))
    (net (code 38) (name "Net-(U1-Pad3)")
      (node (ref U1) (pin 3)))
    (net (code 39) (name "Net-(U1-Pad1)")
      (node (ref U1) (pin 1)))))