EESchema Schematic File Version 4
EELAYER 30 0
EELAYER END
$Descr A4 11693 8268
encoding utf-8
Sheet 1 1
Title ""
Date ""
Rev ""
Comp ""
Comment1 ""
Comment2 ""
Comment3 ""
Comment4 ""
$EndDescr
$Comp
L Device:R_POT RV4
U 1 1 5EA7D2AC
P 1200 2700
F 0 "RV4" H 1131 2746 50  0000 R CNN
F 1 "R_POT" H 1131 2655 50  0000 R CNN
F 2 "Potentiometer_THT:Potentiometer_Alps_RK09K_Single_Vertical" H 1200 2700 50  0001 C CNN
F 3 "~" H 1200 2700 50  0001 C CNN
	1    1200 2700
	1    0    0    -1  
$EndComp
$Comp
L Device:R_POT RV3
U 1 1 5EA7D2A6
P 1200 2200
F 0 "RV3" H 1131 2246 50  0000 R CNN
F 1 "R_POT" H 1131 2155 50  0000 R CNN
F 2 "Potentiometer_THT:Potentiometer_Alps_RK09K_Single_Vertical" H 1200 2200 50  0001 C CNN
F 3 "~" H 1200 2200 50  0001 C CNN
	1    1200 2200
	1    0    0    -1  
$EndComp
$Comp
L Device:R_POT RV7
U 1 1 5EA77814
P 1200 4200
F 0 "RV7" H 1131 4246 50  0000 R CNN
F 1 "R_POT" H 1131 4155 50  0000 R CNN
F 2 "Potentiometer_THT:Potentiometer_Alps_RK09K_Single_Vertical" H 1200 4200 50  0001 C CNN
F 3 "~" H 1200 4200 50  0001 C CNN
	1    1200 4200
	1    0    0    -1  
$EndComp
$Comp
L Device:R_POT RV8
U 1 1 5EA77AD6
P 1200 4700
F 0 "RV8" H 1131 4746 50  0000 R CNN
F 1 "R_POT" H 1131 4655 50  0000 R CNN
F 2 "Potentiometer_THT:Potentiometer_Alps_RK09K_Single_Vertical" H 1200 4700 50  0001 C CNN
F 3 "~" H 1200 4700 50  0001 C CNN
	1    1200 4700
	1    0    0    -1  
$EndComp
$Comp
L Device:R_POT RV6
U 1 1 5EA77562
P 1200 3700
F 0 "RV6" H 1131 3746 50  0000 R CNN
F 1 "R_POT" H 1131 3655 50  0000 R CNN
F 2 "Potentiometer_THT:Potentiometer_Alps_RK09K_Single_Vertical" H 1200 3700 50  0001 C CNN
F 3 "~" H 1200 3700 50  0001 C CNN
	1    1200 3700
	1    0    0    -1  
$EndComp
$Comp
L Device:R_POT RV5
U 1 1 5EA75E62
P 1200 3200
F 0 "RV5" H 1131 3246 50  0000 R CNN
F 1 "R_POT" H 1131 3155 50  0000 R CNN
F 2 "Potentiometer_THT:Potentiometer_Alps_RK09K_Single_Vertical" H 1200 3200 50  0001 C CNN
F 3 "~" H 1200 3200 50  0001 C CNN
	1    1200 3200
	1    0    0    -1  
$EndComp
Wire Wire Line
	1350 1700 1600 1700
Wire Wire Line
	2050 1700 2050 4200
Wire Wire Line
	2000 2200 2000 4300
Wire Wire Line
	1950 2700 1950 4400
Wire Wire Line
	1350 3200 1600 3200
Wire Wire Line
	1900 3200 1900 4500
Wire Wire Line
	1350 3700 1600 3700
Wire Wire Line
	1850 3700 1850 4600
Wire Wire Line
	1800 4200 1800 4700
Wire Wire Line
	1350 4200 1600 4200
Wire Wire Line
	1350 4700 1600 4700
Wire Wire Line
	1750 4700 1750 4800
Wire Wire Line
	2100 4100 2550 4100
Wire Wire Line
	2050 4200 2550 4200
Wire Wire Line
	2000 4300 2550 4300
Wire Wire Line
	1950 4400 2550 4400
Wire Wire Line
	1900 4500 2550 4500
Wire Wire Line
	1850 4600 2550 4600
Wire Wire Line
	1800 4700 2550 4700
Wire Wire Line
	1750 4800 2550 4800
Wire Wire Line
	2100 1200 2100 4100
Wire Wire Line
	1600 1200 2100 1200
Connection ~ 1600 1200
$Comp
L Device:C_Small C1
U 1 1 5EBE902F
P 1600 1300
F 0 "C1" H 1692 1346 50  0000 L CNN
F 1 "0.1 uF" H 1692 1255 50  0000 L CNN
F 2 "Capacitor_SMD:C_0603_1608Metric" H 1600 1300 50  0001 C CNN
F 3 "~" H 1600 1300 50  0001 C CNN
	1    1600 1300
	1    0    0    -1  
$EndComp
Wire Wire Line
	1350 1200 1600 1200
$Comp
L Device:C_Small C2
U 1 1 5EBEE69D
P 1600 1800
F 0 "C2" H 1692 1846 50  0000 L CNN
F 1 "0.1 uF" H 1692 1755 50  0000 L CNN
F 2 "Capacitor_SMD:C_0603_1608Metric" H 1600 1800 50  0001 C CNN
F 3 "~" H 1600 1800 50  0001 C CNN
	1    1600 1800
	1    0    0    -1  
$EndComp
$Comp
L Device:C_Small C5
U 1 1 5EBF1968
P 1600 3300
F 0 "C5" H 1692 3346 50  0000 L CNN
F 1 "0.1 uF" H 1692 3255 50  0000 L CNN
F 2 "Capacitor_SMD:C_0603_1608Metric" H 1600 3300 50  0001 C CNN
F 3 "~" H 1600 3300 50  0001 C CNN
	1    1600 3300
	1    0    0    -1  
$EndComp
$Comp
L Device:C_Small C6
U 1 1 5EBF223E
P 1600 3800
F 0 "C6" H 1692 3846 50  0000 L CNN
F 1 "0.1 uF" H 1692 3755 50  0000 L CNN
F 2 "Capacitor_SMD:C_0603_1608Metric" H 1600 3800 50  0001 C CNN
F 3 "~" H 1600 3800 50  0001 C CNN
	1    1600 3800
	1    0    0    -1  
$EndComp
$Comp
L Device:C_Small C7
U 1 1 5EBF2C70
P 1600 4300
F 0 "C7" H 1692 4346 50  0000 L CNN
F 1 "0.1 uF" H 1692 4255 50  0000 L CNN
F 2 "Capacitor_SMD:C_0603_1608Metric" H 1600 4300 50  0001 C CNN
F 3 "~" H 1600 4300 50  0001 C CNN
	1    1600 4300
	1    0    0    -1  
$EndComp
$Comp
L Device:C_Small C8
U 1 1 5EBF3759
P 1600 4800
F 0 "C8" H 1692 4846 50  0000 L CNN
F 1 "0.1 uF" H 1692 4755 50  0000 L CNN
F 2 "Capacitor_SMD:C_0603_1608Metric" H 1600 4800 50  0001 C CNN
F 3 "~" H 1600 4800 50  0001 C CNN
	1    1600 4800
	1    0    0    -1  
$EndComp
Connection ~ 1600 1700
Wire Wire Line
	1600 1700 2050 1700
Connection ~ 1600 3200
Wire Wire Line
	1600 3200 1900 3200
Connection ~ 1600 3700
Wire Wire Line
	1600 3700 1850 3700
Connection ~ 1600 4200
Wire Wire Line
	1600 4200 1800 4200
Connection ~ 1600 4700
Wire Wire Line
	1600 4700 1750 4700
Wire Wire Line
	4550 4600 4300 4600
Wire Wire Line
	4300 4600 4300 2900
Wire Wire Line
	4300 2900 2400 2900
Wire Wire Line
	2400 2900 2400 3800
Wire Wire Line
	2400 3800 2550 3800
Wire Wire Line
	3950 3400 4250 3400
Wire Wire Line
	4250 3400 4250 4700
Wire Wire Line
	4250 4700 4550 4700
Wire Wire Line
	2550 3700 2350 3700
Wire Wire Line
	2350 3700 2350 2850
Wire Wire Line
	2350 2850 4350 2850
Wire Wire Line
	4350 2850 4350 4500
Wire Wire Line
	4350 4500 4550 4500
Wire Wire Line
	4550 5300 4200 5300
Wire Wire Line
	4200 5300 4200 2950
Wire Wire Line
	4200 2950 2450 2950
Wire Wire Line
	2450 2950 2450 3900
Wire Wire Line
	2450 3900 2550 3900
$Comp
L Device:C_Small C9
U 1 1 5EC1FCE6
P 5450 2150
F 0 "C9" V 5679 2150 50  0000 C CNN
F 1 "0.1 uF" V 5588 2150 50  0000 C CNN
F 2 "Capacitor_SMD:C_0603_1608Metric" H 5450 2150 50  0001 C CNN
F 3 "~" H 5450 2150 50  0001 C CNN
	1    5450 2150
	0    -1   -1   0   
$EndComp
Wire Wire Line
	5350 2150 5350 1700
$Comp
L Device:C_Small C10
U 1 1 5EC2C8E5
P 5900 2550
F 0 "C10" H 5992 2596 50  0000 L CNN
F 1 "1 uF" H 5992 2505 50  0000 L CNN
F 2 "Capacitor_SMD:C_0603_1608Metric" H 5900 2550 50  0001 C CNN
F 3 "~" H 5900 2550 50  0001 C CNN
	1    5900 2550
	1    0    0    -1  
$EndComp
Wire Wire Line
	5750 2450 5900 2450
Wire Wire Line
	2500 3600 2550 3600
Wire Wire Line
	1200 1850 2500 1850
Connection ~ 2500 1850
Wire Wire Line
	2500 1850 2500 2350
Wire Wire Line
	1200 2350 2250 2350
Connection ~ 2500 2350
Wire Wire Line
	2500 2350 2500 3600
Wire Wire Line
	1200 2850 2250 2850
Wire Wire Line
	2250 2850 2250 2350
Connection ~ 2250 2350
Wire Wire Line
	2250 2350 2500 2350
Wire Wire Line
	1200 3350 2250 3350
Wire Wire Line
	2250 3350 2250 2850
Connection ~ 2250 2850
Wire Wire Line
	1200 3850 2250 3850
Wire Wire Line
	2250 3850 2250 3350
Connection ~ 2250 3350
Wire Wire Line
	1200 4350 2250 4350
Wire Wire Line
	2250 4350 2250 3850
Connection ~ 2250 3850
Wire Wire Line
	1200 4850 2250 4850
Wire Wire Line
	2250 4850 2250 4350
Connection ~ 2250 4350
NoConn ~ 4550 3500
NoConn ~ 4550 3600
NoConn ~ 4550 3700
NoConn ~ 4550 3800
NoConn ~ 4550 3900
NoConn ~ 4550 4000
NoConn ~ 4550 4100
NoConn ~ 4550 4200
NoConn ~ 4550 4300
NoConn ~ 4550 4400
NoConn ~ 4550 4800
NoConn ~ 4550 4900
NoConn ~ 4550 5000
NoConn ~ 4550 5100
NoConn ~ 4550 5200
NoConn ~ 6900 5300
NoConn ~ 6900 5200
NoConn ~ 6900 5100
NoConn ~ 6900 5000
NoConn ~ 6900 4900
NoConn ~ 6900 4800
NoConn ~ 6900 4700
NoConn ~ 6900 4600
NoConn ~ 6900 4500
NoConn ~ 6900 4400
NoConn ~ 6900 4100
NoConn ~ 6900 3900
NoConn ~ 6900 3800
NoConn ~ 6900 3700
Wire Wire Line
	1600 2200 2000 2200
Wire Wire Line
	1350 2200 1600 2200
Connection ~ 1600 2200
$Comp
L Device:C_Small C3
U 1 1 5EBEEEF2
P 1600 2300
F 0 "C3" H 1692 2346 50  0000 L CNN
F 1 "0.1 uF" H 1692 2255 50  0000 L CNN
F 2 "Capacitor_SMD:C_0603_1608Metric" H 1600 2300 50  0001 C CNN
F 3 "~" H 1600 2300 50  0001 C CNN
	1    1600 2300
	1    0    0    -1  
$EndComp
Wire Wire Line
	1200 1350 2500 1350
$Comp
L Device:R_POT RV1
U 1 1 5EA7D29A
P 1200 1200
F 0 "RV1" H 1131 1246 50  0000 R CNN
F 1 "R_POT" H 1131 1155 50  0000 R CNN
F 2 "Potentiometer_THT:Potentiometer_Alps_RK09K_Single_Vertical" H 1200 1200 50  0001 C CNN
F 3 "~" H 1200 1200 50  0001 C CNN
	1    1200 1200
	1    0    0    -1  
$EndComp
$Comp
L Device:R_POT RV2
U 1 1 5EA7D2A0
P 1200 1700
F 0 "RV2" H 1131 1746 50  0000 R CNN
F 1 "R_POT" H 1131 1655 50  0000 R CNN
F 2 "Potentiometer_THT:Potentiometer_Alps_RK09K_Single_Vertical" H 1200 1700 50  0001 C CNN
F 3 "~" H 1200 1700 50  0001 C CNN
	1    1200 1700
	1    0    0    -1  
$EndComp
$Comp
L MCP3304-BI_P:MCP3304-BI_P U1
U 1 1 5EBA1AAD
P 3250 4100
F 0 "U1" H 3250 5170 50  0000 C CNN
F 1 "MCP3304-BI_P" H 3250 5079 50  0000 C CNN
F 2 "DIP254P762X533-16" H 3250 4100 50  0001 L BNN
F 3 "Microchip" H 3250 4100 50  0001 L BNN
F 4 "1439395" H 3250 4100 50  0001 L BNN "Field4"
F 5 "96K3724" H 3250 4100 50  0001 L BNN "Field5"
F 6 "DIP-16" H 3250 4100 50  0001 L BNN "Field6"
F 7 "MCP3304-BI/P" H 3250 4100 50  0001 L BNN "Field7"
	1    3250 4100
	1    0    0    -1  
$EndComp
NoConn ~ 4550 3400
Wire Wire Line
	1350 2700 1600 2700
$Comp
L Device:C_Small C4
U 1 1 5ECF2622
P 1600 2800
F 0 "C4" H 1692 2846 50  0000 L CNN
F 1 "0.1 uF" H 1692 2755 50  0000 L CNN
F 2 "Capacitor_SMD:C_0603_1608Metric" H 1600 2800 50  0001 C CNN
F 3 "~" H 1600 2800 50  0001 C CNN
	1    1600 2800
	1    0    0    -1  
$EndComp
Connection ~ 1600 2700
Wire Wire Line
	1600 2700 1950 2700
Wire Wire Line
	1600 1400 750  1400
Wire Wire Line
	750  1400 750  1550
Wire Wire Line
	750  1900 1600 1900
Wire Wire Line
	750  1900 750  2050
Wire Wire Line
	750  2400 1600 2400
Connection ~ 750  1900
Wire Wire Line
	750  2400 750  2550
Wire Wire Line
	750  2900 1600 2900
Connection ~ 750  2400
Wire Wire Line
	750  2900 750  3050
Wire Wire Line
	750  3400 1600 3400
Connection ~ 750  2900
Wire Wire Line
	750  3400 750  3550
Wire Wire Line
	750  3900 1600 3900
Connection ~ 750  3400
Wire Wire Line
	750  3900 750  4050
Wire Wire Line
	750  4400 1600 4400
Connection ~ 750  3900
Wire Wire Line
	750  4400 750  4550
Wire Wire Line
	750  4900 1600 4900
Connection ~ 750  4400
Wire Wire Line
	1200 4550 750  4550
Connection ~ 750  4550
Wire Wire Line
	750  4550 750  4900
Wire Wire Line
	1200 4050 750  4050
Connection ~ 750  4050
Wire Wire Line
	750  4050 750  4400
Wire Wire Line
	1200 3550 750  3550
Connection ~ 750  3550
Wire Wire Line
	750  3550 750  3900
Wire Wire Line
	1200 3050 750  3050
Connection ~ 750  3050
Wire Wire Line
	750  3050 750  3400
Wire Wire Line
	1200 2550 750  2550
Connection ~ 750  2550
Wire Wire Line
	750  2550 750  2900
Wire Wire Line
	1200 2050 750  2050
Connection ~ 750  2050
Wire Wire Line
	750  2050 750  2400
Wire Wire Line
	1200 1550 750  1550
Connection ~ 750  1550
Wire Wire Line
	750  1550 750  1900
Wire Wire Line
	1200 1050 750  1050
Wire Wire Line
	750  1050 750  1400
Connection ~ 750  1400
Wire Wire Line
	750  1050 750  950 
Connection ~ 750  1050
Wire Wire Line
	2550 5000 750  5000
Wire Wire Line
	750  5000 750  4900
Connection ~ 750  4900
Wire Wire Line
	2550 5100 750  5100
Wire Wire Line
	750  5100 750  5000
Connection ~ 750  5000
$Comp
L teensy:Teensy-LC U3
U 1 1 5EA746B0
P 5700 4350
F 0 "U3" H 5725 5587 60  0000 C CNN
F 1 "Teensy-LC" H 5725 5481 60  0000 C CNN
F 2 "teensy:Teensy30_31_32_LC" H 5700 3800 60  0001 C CNN
F 3 "" H 5700 3800 60  0000 C CNN
	1    5700 4350
	1    0    0    -1  
$EndComp
Wire Wire Line
	2550 3400 2550 2800
Wire Wire Line
	6900 4300 7100 4300
Wire Wire Line
	6900 4200 7000 4200
Wire Wire Line
	7100 4300 7100 2800
Wire Wire Line
	7100 2800 7100 1700
Connection ~ 7100 2800
Wire Wire Line
	2550 2800 7100 2800
Wire Wire Line
	750  950  7000 950 
Wire Wire Line
	7100 1700 5350 1700
Wire Wire Line
	7000 950  7000 2150
Connection ~ 7000 2150
Wire Wire Line
	5550 2150 7000 2150
Wire Wire Line
	7000 2750 7000 4200
Connection ~ 7000 2750
Wire Wire Line
	5350 2750 7000 2750
Wire Wire Line
	7000 2150 7000 2650
Wire Wire Line
	7000 2650 7000 2750
Connection ~ 7000 2650
Wire Wire Line
	5900 2650 7000 2650
Wire Wire Line
	2500 1800 2500 1850
Wire Wire Line
	2500 1350 2500 1800
Connection ~ 2500 1800
Wire Wire Line
	6500 1800 2500 1800
Wire Wire Line
	6500 2450 6500 1800
Connection ~ 5900 2450
Wire Wire Line
	5900 2450 6500 2450
NoConn ~ 6900 4000
$Comp
L power:PWR_FLAG #FLG0101
U 1 1 5ED7A640
P 6900 4200
F 0 "#FLG0101" H 6900 4275 50  0001 C CNN
F 1 "PWR_FLAG" H 6900 4373 50  0000 C CNN
F 2 "" H 6900 4200 50  0001 C CNN
F 3 "~" H 6900 4200 50  0001 C CNN
	1    6900 4200
	1    0    0    -1  
$EndComp
Connection ~ 6900 4200
$Comp
L Reference_Voltage:MCP1525-TT U2
U 1 1 5ED8B14A
P 5350 2450
F 0 "U2" H 5220 2496 50  0000 R CNN
F 1 "MCP1525-TT" H 5220 2405 50  0000 R CNN
F 2 "Package_TO_SOT_SMD:SOT-23" H 5375 2200 50  0001 L CIN
F 3 "http://ww1.microchip.com/downloads/en/devicedoc/21653b.pdf" H 5350 2450 50  0001 C CIN
	1    5350 2450
	1    0    0    -1  
$EndComp
Connection ~ 5350 2150
$EndSCHEMATC
