%TF.GenerationSoftware,KiCad,Pcbnew,(5.1.5)-3*%
%TF.CreationDate,2020-05-11T16:34:04-04:00*%
%TF.ProjectId,MIDI Controller,4d494449-2043-46f6-9e74-726f6c6c6572,rev?*%
%TF.SameCoordinates,Original*%
%TF.FileFunction,Copper,L1,Top*%
%TF.FilePolarity,Positive*%
%FSLAX46Y46*%
G04 Gerber Fmt 4.6, Leading zero omitted, Abs format (unit mm)*
G04 Created by KiCad (PCBNEW (5.1.5)-3) date 2020-05-11 16:34:04*
%MOMM*%
%LPD*%
G04 APERTURE LIST*
%ADD10C,0.050000*%
%ADD11C,1.900000*%
%ADD12R,1.600000X1.600000*%
%ADD13C,1.600000*%
%ADD14C,1.498600*%
%ADD15R,1.498600X1.498600*%
%ADD16C,1.800000*%
%ADD17C,4.000000*%
%ADD18C,6.400000*%
%ADD19C,0.635000*%
%ADD20C,0.152400*%
G04 APERTURE END LIST*
D10*
X39000000Y-107000000D02*
X39000000Y-39000000D01*
X176000000Y-107000000D02*
X39000000Y-107000000D01*
X176000000Y-39000000D02*
X176000000Y-107000000D01*
X39000000Y-39000000D02*
X176000000Y-39000000D01*
D11*
X107000000Y-46840000D03*
X107000000Y-50650000D03*
D12*
X114620000Y-40490000D03*
D13*
X114620000Y-43030000D03*
X114620000Y-45570000D03*
X114620000Y-48110000D03*
X114620000Y-50650000D03*
X114620000Y-53190000D03*
X114620000Y-55730000D03*
X114620000Y-58270000D03*
X114620000Y-60810000D03*
X114620000Y-63350000D03*
X114620000Y-65890000D03*
X114620000Y-68430000D03*
X114620000Y-70970000D03*
X101920000Y-53190000D03*
X101920000Y-50650000D03*
X101920000Y-48110000D03*
X101920000Y-43030000D03*
X99380000Y-40490000D03*
X99380000Y-43030000D03*
X99380000Y-45570000D03*
X99380000Y-48110000D03*
X99380000Y-50650000D03*
X99380000Y-53190000D03*
X99380000Y-55730000D03*
X99380000Y-58270000D03*
X99380000Y-60810000D03*
X99380000Y-63350000D03*
X99380000Y-65890000D03*
X99380000Y-68430000D03*
X99380000Y-70970000D03*
X114620000Y-73510000D03*
X112080000Y-73510000D03*
X109540000Y-73510000D03*
X99380000Y-73510000D03*
X101920000Y-73510000D03*
X104460000Y-73510000D03*
X107000000Y-73510000D03*
D14*
X66780000Y-69000000D03*
X64240000Y-69000000D03*
X61700000Y-69000000D03*
X59160000Y-69000000D03*
X56620000Y-69000000D03*
X54080000Y-69000000D03*
X51540000Y-69000000D03*
X49000000Y-69000000D03*
X49000000Y-76620000D03*
X51540000Y-76620000D03*
X54080000Y-76620000D03*
X56620000Y-76620000D03*
X59160000Y-76620000D03*
X61700000Y-76620000D03*
X64240000Y-76620000D03*
D15*
X66780000Y-76620000D03*
D16*
X85000000Y-54000000D03*
X87500000Y-54000000D03*
X90000000Y-54000000D03*
D17*
X83100000Y-47000000D03*
X91900000Y-47000000D03*
D18*
X60000000Y-100000000D03*
X155000000Y-100000000D03*
X155000000Y-45000000D03*
D16*
X165000000Y-104000000D03*
X167500000Y-104000000D03*
X170000000Y-104000000D03*
D17*
X163100000Y-97000000D03*
X171900000Y-97000000D03*
D16*
X165000000Y-54000000D03*
X167500000Y-54000000D03*
X170000000Y-54000000D03*
D17*
X163100000Y-47000000D03*
X171900000Y-47000000D03*
X131900000Y-47000000D03*
X123100000Y-47000000D03*
D16*
X130000000Y-54000000D03*
X127500000Y-54000000D03*
X125000000Y-54000000D03*
D17*
X131900000Y-97000000D03*
X123100000Y-97000000D03*
D16*
X130000000Y-104000000D03*
X127500000Y-104000000D03*
X125000000Y-104000000D03*
D18*
X60000000Y-45000000D03*
D17*
X51900000Y-97000000D03*
X43100000Y-97000000D03*
D16*
X50000000Y-104000000D03*
X47500000Y-104000000D03*
X45000000Y-104000000D03*
X85000000Y-104000000D03*
X87500000Y-104000000D03*
X90000000Y-104000000D03*
D17*
X83100000Y-97000000D03*
X91900000Y-97000000D03*
X51900000Y-47000000D03*
X43100000Y-47000000D03*
D16*
X50000000Y-54000000D03*
X47500000Y-54000000D03*
X45000000Y-54000000D03*
D19*
X93468500Y-55950000D03*
D20*
X59160000Y-69000000D02*
X63670000Y-73510000D01*
X63670000Y-73510000D02*
X99380000Y-73510000D01*
X114620000Y-73510000D02*
X113138200Y-72028200D01*
X113138200Y-72028200D02*
X71757400Y-72028200D01*
X71757400Y-72028200D02*
X67718400Y-67989200D01*
X67718400Y-67989200D02*
X57630800Y-67989200D01*
X57630800Y-67989200D02*
X56620000Y-69000000D01*
X114620000Y-70970000D02*
X113350000Y-69700000D01*
X113350000Y-69700000D02*
X69930500Y-69700000D01*
X69930500Y-69700000D02*
X67914600Y-67684100D01*
X67914600Y-67684100D02*
X55395900Y-67684100D01*
X55395900Y-67684100D02*
X54080000Y-69000000D01*
X114620000Y-68430000D02*
X113569000Y-67379000D01*
X113569000Y-67379000D02*
X53161000Y-67379000D01*
X53161000Y-67379000D02*
X51540000Y-69000000D01*
X49000000Y-69000000D02*
X48013700Y-69986300D01*
X48013700Y-69986300D02*
X48013700Y-102013700D01*
X48013700Y-102013700D02*
X50000000Y-104000000D01*
X93468500Y-54735800D02*
X93468500Y-55950000D01*
X125000000Y-54000000D02*
X124770000Y-54230000D01*
X124770000Y-54230000D02*
X93974300Y-54230000D01*
X93974300Y-54230000D02*
X93468500Y-54735800D01*
X93468500Y-54735800D02*
X91563700Y-52831000D01*
X91563700Y-52831000D02*
X86169000Y-52831000D01*
X86169000Y-52831000D02*
X85000000Y-54000000D01*
X125000000Y-54000000D02*
X126169000Y-52831000D01*
X126169000Y-52831000D02*
X163831000Y-52831000D01*
X163831000Y-52831000D02*
X165000000Y-54000000D01*
X87500000Y-54000000D02*
X85255500Y-56244500D01*
X85255500Y-56244500D02*
X62843000Y-56244500D01*
X62843000Y-56244500D02*
X50544400Y-68543100D01*
X50544400Y-68543100D02*
X50544400Y-69454600D01*
X50544400Y-69454600D02*
X56574100Y-75484300D01*
X56574100Y-75484300D02*
X59420200Y-75484300D01*
X59420200Y-75484300D02*
X60570000Y-76634100D01*
X60570000Y-76634100D02*
X60570000Y-76875300D01*
X60570000Y-76875300D02*
X61293500Y-77598800D01*
X61293500Y-77598800D02*
X63261200Y-77598800D01*
X63261200Y-77598800D02*
X64240000Y-76620000D01*
X127500000Y-54000000D02*
X127500000Y-62089000D01*
X127500000Y-62089000D02*
X114751900Y-74837100D01*
X114751900Y-74837100D02*
X63482800Y-74837100D01*
X63482800Y-74837100D02*
X63482800Y-74837200D01*
X63482800Y-74837200D02*
X61700000Y-76620000D01*
X167500000Y-54000000D02*
X143590100Y-77909900D01*
X143590100Y-77909900D02*
X60449900Y-77909900D01*
X60449900Y-77909900D02*
X59160000Y-76620000D01*
X127500000Y-104000000D02*
X122807300Y-99307300D01*
X122807300Y-99307300D02*
X74227300Y-99307300D01*
X74227300Y-99307300D02*
X51540000Y-76620000D01*
X167500000Y-104000000D02*
X166929600Y-104000000D01*
X166929600Y-104000000D02*
X141161500Y-78231900D01*
X141161500Y-78231900D02*
X56828100Y-78231900D01*
X56828100Y-78231900D02*
X55350100Y-76753900D01*
X55350100Y-76753900D02*
X55350100Y-76475700D01*
X55350100Y-76475700D02*
X54511400Y-75637000D01*
X54511400Y-75637000D02*
X49983000Y-75637000D01*
X49983000Y-75637000D02*
X49000000Y-76620000D01*
M02*
