M48
; DRILL file {KiCad (5.1.5)-3} date 5/11/2020 4:34:13 PM
; FORMAT={-:-/ absolute / metric / decimal}
; #@! TF.CreationDate,2020-05-11T16:34:13-04:00
; #@! TF.GenerationSoftware,Kicad,Pcbnew,(5.1.5)-3
FMAT,2
METRIC
T1C0.254
T2C0.500
T3C0.991
T4C1.000
T5C1.100
T6C3.200
T7C2.000
%
G90
G05
T1
X93.468Y-55.95
T2
X107.0Y-46.84
X107.0Y-50.65
T3
X49.0Y-69.0
X49.0Y-76.62
X51.54Y-69.0
X51.54Y-76.62
X54.08Y-69.0
X54.08Y-76.62
X56.62Y-69.0
X56.62Y-76.62
X59.16Y-69.0
X59.16Y-76.62
X61.7Y-69.0
X61.7Y-76.62
X64.24Y-69.0
X64.24Y-76.62
X66.78Y-69.0
X66.78Y-76.62
T4
X85.0Y-54.0
X87.5Y-54.0
X90.0Y-54.0
X125.0Y-54.0
X127.5Y-54.0
X130.0Y-54.0
X85.0Y-104.0
X87.5Y-104.0
X90.0Y-104.0
X45.0Y-54.0
X47.5Y-54.0
X50.0Y-54.0
X45.0Y-104.0
X47.5Y-104.0
X50.0Y-104.0
X165.0Y-104.0
X167.5Y-104.0
X170.0Y-104.0
X165.0Y-54.0
X167.5Y-54.0
X170.0Y-54.0
X125.0Y-104.0
X127.5Y-104.0
X130.0Y-104.0
T5
X99.38Y-40.49
X99.38Y-43.03
X99.38Y-45.57
X99.38Y-48.11
X99.38Y-50.65
X99.38Y-53.19
X99.38Y-55.73
X99.38Y-58.27
X99.38Y-60.81
X99.38Y-63.35
X99.38Y-65.89
X99.38Y-68.43
X99.38Y-70.97
X99.38Y-73.51
X101.92Y-43.03
X101.92Y-48.11
X101.92Y-50.65
X101.92Y-53.19
X101.92Y-73.51
X104.46Y-73.51
X107.0Y-73.51
X109.54Y-73.51
X112.08Y-73.51
X114.62Y-40.49
X114.62Y-43.03
X114.62Y-45.57
X114.62Y-48.11
X114.62Y-50.65
X114.62Y-53.19
X114.62Y-55.73
X114.62Y-58.27
X114.62Y-60.81
X114.62Y-63.35
X114.62Y-65.89
X114.62Y-68.43
X114.62Y-70.97
X114.62Y-73.51
T6
X60.0Y-100.0
X155.0Y-45.0
X60.0Y-45.0
X155.0Y-100.0
T7
X123.1Y-47.0
X131.9Y-47.0
X83.1Y-97.0
X91.9Y-97.0
X43.1Y-47.0
X51.9Y-47.0
X43.1Y-97.0
X51.9Y-97.0
X163.1Y-97.0
X171.9Y-97.0
X163.1Y-47.0
X171.9Y-47.0
X123.1Y-97.0
X131.9Y-97.0
X83.1Y-47.0
X91.9Y-47.0
T0
M30
